module builder

go 1.22.5

require (
	github.com/docker/docker v28.0.1+incompatible
	github.com/rs/zerolog v1.33.0
	golang.org/x/net v0.35.0
)

require (
	github.com/Microsoft/go-winio v0.4.14 // indirect
	github.com/containerd/log v0.1.0 // indirect
	github.com/distribution/reference v0.6.0 // indirect
	github.com/docker/go-connections v0.5.0 // indirect
	github.com/docker/go-units v0.5.0 // indirect
	github.com/felixge/httpsnoop v1.0.4 // indirect
	github.com/go-logr/logr v1.4.2 // indirect
	github.com/go-logr/stdr v1.2.2 // indirect
	github.com/gogo/protobuf v1.3.2 // indirect
	github.com/mattn/go-colorable v0.1.14 // indirect
	github.com/mattn/go-isatty v0.0.20 // indirect
	github.com/moby/docker-image-spec v1.3.1 // indirect
	github.com/moby/term v0.5.2 // indirect
	github.com/morikuni/aec v1.0.0 // indirect
	github.com/opencontainers/go-digest v1.0.0 // indirect
	github.com/opencontainers/image-spec v1.1.0 // indirect
	github.com/pkg/errors v0.9.1 // indirect
	go.opentelemetry.io/auto/sdk v1.1.0 // indirect
	go.opentelemetry.io/contrib/instrumentation/net/http/otelhttp v0.59.0 // indirect
	go.opentelemetry.io/otel v1.34.0 // indirect
	go.opentelemetry.io/otel/exporters/otlp/otlptrace/otlptracehttp v1.34.0 // indirect
	go.opentelemetry.io/otel/metric v1.34.0 // indirect
	go.opentelemetry.io/otel/sdk v1.34.0 // indirect
	go.opentelemetry.io/otel/trace v1.34.0 // indirect
	golang.org/x/sys v0.30.0 // indirect
	golang.org/x/time v0.10.0 // indirect
	gotest.tools/v3 v3.5.2 // indirect
)
